taxid	gcode	name	superkingdom	phylum	class	order	family	genus	species
446	11	Legionella pneumophila	Bacteria	Proteobacteria	Gammaproteobacteria	Legionellales	Legionellaceae	Legionella	Legionella pneumophila
447	11	Fluoribacter bozemanae	Bacteria	Proteobacteria	Gammaproteobacteria	Legionellales	Legionellaceae	Fluoribacter	Fluoribacter bozemanae
448	11	Legionella erythra	Bacteria	Proteobacteria	Gammaproteobacteria	Legionellales	Legionellaceae	Legionella	Legionella erythra
449	11	Legionella hackeliae	Bacteria	Proteobacteria	Gammaproteobacteria	Legionellales	Legionellaceae	Legionella	Legionella hackeliae
451	11	Tatlockia micdadei	Bacteria	Proteobacteria	Gammaproteobacteria	Legionellales	Legionellaceae	Tatlockia	Tatlockia micdadei
452	11	Legionella spiritensis	Bacteria	Proteobacteria	Gammaproteobacteria	Legionellales	Legionellaceae	Legionella	Legionella spiritensis
453	11	Legionella feeleii	Bacteria	Proteobacteria	Gammaproteobacteria	Legionellales	Legionellaceae	Legionella	Legionella feeleii
454	11	Legionella israelensis	Bacteria	Proteobacteria	Gammaproteobacteria	Legionellales	Legionellaceae	Legionella	Legionella israelensis
455	11	Legionella jamestowniensis	Bacteria	Proteobacteria	Gammaproteobacteria	Legionellales	Legionellaceae	Legionella	Legionella jamestowniensis
456	11	Legionella jordanis	Bacteria	Proteobacteria	Gammaproteobacteria	Legionellales	Legionellaceae	Legionella	Legionella jordanis
458	11	Legionella rubrilucens	Bacteria	Proteobacteria	Gammaproteobacteria	Legionellales	Legionellaceae	Legionella	Legionella rubrilucens
460	11	Legionella steigerwaltii	Bacteria	Proteobacteria	Gammaproteobacteria	Legionellales	Legionellaceae	Legionella	Legionella steigerwaltii
464	11	Fluoribacter gormanii	Bacteria	Proteobacteria	Gammaproteobacteria	Legionellales	Legionellaceae	Fluoribacter	Fluoribacter gormanii
466	11	Legionella maceachernii	Bacteria	Proteobacteria	Gammaproteobacteria	Legionellales	Legionellaceae	Tatlockia	Legionella maceachernii
777	11	Coxiella burnetii	Bacteria	Proteobacteria	Gammaproteobacteria	Legionellales	Coxiellaceae	Coxiella	Coxiella burnetii
28082	11	Legionella anisa	Bacteria	Proteobacteria	Gammaproteobacteria	Legionellales	Legionellaceae	Legionella	Legionella anisa
28083	11	Legionella birminghamensis	Bacteria	Proteobacteria	Gammaproteobacteria	Legionellales	Legionellaceae	Legionella	Legionella birminghamensis
28084	11	Legionella cherrii	Bacteria	Proteobacteria	Gammaproteobacteria	Legionellales	Legionellaceae	Legionella	Legionella cherrii
28085	11	Legionella cincinnatiensis	Bacteria	Proteobacteria	Gammaproteobacteria	Legionellales	Legionellaceae	Legionella	Legionella cincinnatiensis
28087	11	Legionella sainthelensi	Bacteria	Proteobacteria	Gammaproteobacteria	Legionellales	Legionellaceae	Legionella	Legionella sainthelensi
29422	11	Legionella brunensis	Bacteria	Proteobacteria	Gammaproteobacteria	Legionellales	Legionellaceae	Legionella	Legionella brunensis
29423	11	Legionella oakridgensis	Bacteria	Proteobacteria	Gammaproteobacteria	Legionellales	Legionellaceae	Legionella	Legionella oakridgensis
39962	11	Legionella moravica	Bacteria	Proteobacteria	Gammaproteobacteria	Legionellales	Legionellaceae	Legionella	Legionella moravica
40335	11	Legionella tucsonensis	Bacteria	Proteobacteria	Gammaproteobacteria	Legionellales	Legionellaceae	Legionella	Legionella tucsonensis
45056	11	Legionella adelaidensis	Bacteria	Proteobacteria	Gammaproteobacteria	Legionellales	Legionellaceae	Legionella	Legionella adelaidensis
45065	11	Legionella geestiana	Bacteria	Proteobacteria	Gammaproteobacteria	Legionellales	Legionellaceae	Legionella	Legionella geestiana
45066	11	Legionella gratiana	Bacteria	Proteobacteria	Gammaproteobacteria	Legionellales	Legionellaceae	Legionella	Legionella gratiana
45067	11	Legionella lansingensis	Bacteria	Proteobacteria	Gammaproteobacteria	Legionellales	Legionellaceae	Legionella	Legionella lansingensis
45068	11	Legionella londiniensis	Bacteria	Proteobacteria	Gammaproteobacteria	Legionellales	Legionellaceae	Legionella	Legionella londiniensis
45070	11	Legionella nautarum	Bacteria	Proteobacteria	Gammaproteobacteria	Legionellales	Legionellaceae	Legionella	Legionella nautarum
45071	11	Legionella parisiensis	Bacteria	Proteobacteria	Gammaproteobacteria	Legionellales	Legionellaceae	Legionella	Legionella parisiensis
45072	11	Legionella quateirensis	Bacteria	Proteobacteria	Gammaproteobacteria	Legionellales	Legionellaceae	Legionella	Legionella quateirensis
45073	11	Legionella quinlivanii	Bacteria	Proteobacteria	Gammaproteobacteria	Legionellales	Legionellaceae	Legionella	Legionella quinlivanii
45074	11	Legionella santicrucis	Bacteria	Proteobacteria	Gammaproteobacteria	Legionellales	Legionellaceae	Legionella	Legionella santicrucis
45076	11	Legionella worsleiensis	Bacteria	Proteobacteria	Gammaproteobacteria	Legionellales	Legionellaceae	Legionella	Legionella worsleiensis
59196	11	Rickettsiella grylli	Bacteria	Proteobacteria	Gammaproteobacteria	Legionellales	Coxiellaceae	Rickettsiella	Rickettsiella grylli
66969	11	Legionella waltersii	Bacteria	Proteobacteria	Gammaproteobacteria	Legionellales	Legionellaceae	Legionella	Legionella waltersii
66976	11	Legionella pneumophila serogroup 1	Bacteria	Proteobacteria	Gammaproteobacteria	Legionellales	Legionellaceae	Legionella	Legionella pneumophila
91890	11	Legionella pneumophila subsp. pascullei	Bacteria	Proteobacteria	Gammaproteobacteria	Legionellales	Legionellaceae	Legionella	Legionella pneumophila
91891	11	Legionella pneumophila subsp. pneumophila	Bacteria	Proteobacteria	Gammaproteobacteria	Legionellales	Legionellaceae	Legionella	Legionella pneumophila
91892	11	Legionella pneumophila subsp. fraseri	Bacteria	Proteobacteria	Gammaproteobacteria	Legionellales	Legionellaceae	Legionella	Legionella pneumophila
227377	11	Coxiella burnetii RSA 493	Bacteria	Proteobacteria	Gammaproteobacteria	Legionellales	Coxiellaceae	Coxiella	Coxiella burnetii
272624	11	Legionella pneumophila subsp. pneumophila str. Philadelphia 1	Bacteria	Proteobacteria	Gammaproteobacteria	Legionellales	Legionellaceae	Legionella	Legionella pneumophila
297245	11	Legionella pneumophila str. Lens	Bacteria	Proteobacteria	Gammaproteobacteria	Legionellales	Legionellaceae	Legionella	Legionella pneumophila
297246	11	Legionella pneumophila str. Paris	Bacteria	Proteobacteria	Gammaproteobacteria	Legionellales	Legionellaceae	Legionella	Legionella pneumophila
325775	11	Coxiella endosymbiont of Amblyomma americanum	Bacteria	Proteobacteria	Gammaproteobacteria	Legionellales	Coxiellaceae	Coxiella	Coxiella endosymbiont of Amblyomma americanum
360115	11	Coxiella burnetii RSA 331	Bacteria	Proteobacteria	Gammaproteobacteria	Legionellales	Coxiellaceae	Coxiella	Coxiella burnetii
360116	11	Coxiella burnetii 'MSU Goat Q177'	Bacteria	Proteobacteria	Gammaproteobacteria	Legionellales	Coxiellaceae	Coxiella	Coxiella burnetii
360117	11	Coxiella burnetii Q321	Bacteria	Proteobacteria	Gammaproteobacteria	Legionellales	Coxiellaceae	Coxiella	Coxiella burnetii
400673	11	Legionella pneumophila str. Corby	Bacteria	Proteobacteria	Gammaproteobacteria	Legionellales	Legionellaceae	Legionella	Legionella pneumophila
423212	11	Legionella pneumophila 2300/99 Alcoy	Bacteria	Proteobacteria	Gammaproteobacteria	Legionellales	Legionellaceae	Legionella	Legionella pneumophila
434922	11	Coxiella burnetii Dugway 5J108-111	Bacteria	Proteobacteria	Gammaproteobacteria	Legionellales	Coxiellaceae	Coxiella	Coxiella burnetii
434923	11	Coxiella burnetii CbuG_Q212	Bacteria	Proteobacteria	Gammaproteobacteria	Legionellales	Coxiellaceae	Coxiella	Coxiella burnetii
434924	11	Coxiella burnetii CbuK_Q154	Bacteria	Proteobacteria	Gammaproteobacteria	Legionellales	Coxiellaceae	Coxiella	Coxiella burnetii
638315	11	Legionella longbeachae D-4968	Bacteria	Proteobacteria	Gammaproteobacteria	Legionellales	Legionellaceae	Legionella	Legionella longbeachae
658187	11	Legionella drancourtii LLAP12	Bacteria	Proteobacteria	Gammaproteobacteria	Legionellales	Legionellaceae	Legionella	Legionella drancourtii
661367	11	Legionella longbeachae NSW150	Bacteria	Proteobacteria	Gammaproteobacteria	Legionellales	Legionellaceae	Legionella	Legionella longbeachae
866628	11	Legionella pneumophila 130b	Bacteria	Proteobacteria	Gammaproteobacteria	Legionellales	Legionellaceae	Legionella	Legionella pneumophila
933085	11	Legionella pneumophila subsp. pneumophila ATCC 33215	Bacteria	Proteobacteria	Gammaproteobacteria	Legionellales	Legionellaceae	Legionella	Legionella pneumophila
933091	11	Legionella pneumophila subsp. pneumophila ATCC 43283	Bacteria	Proteobacteria	Gammaproteobacteria	Legionellales	Legionellaceae	Legionella	Legionella pneumophila
933093	11	Legionella pneumophila subsp. pneumophila ATCC 43290	Bacteria	Proteobacteria	Gammaproteobacteria	Legionellales	Legionellaceae	Legionella	Legionella pneumophila
947033	11	Legionella steelei	Bacteria	Proteobacteria	Gammaproteobacteria	Legionellales	Legionellaceae	Legionella	Legionella steelei
1034943	11	Legionella massiliensis	Bacteria	Proteobacteria	Gammaproteobacteria	Legionellales	Legionellaceae	Legionella	Legionella massiliensis
1034944	11	Legionella tunisiensis	Bacteria	Proteobacteria	Gammaproteobacteria	Legionellales	Legionellaceae	Legionella	Legionella tunisiensis
1081094	11	Legionella pneumophila subsp. pneumophila str. Hextuple_2q	Bacteria	Proteobacteria	Gammaproteobacteria	Legionellales	Legionellaceae	Legionella	Legionella pneumophila
1081095	11	Legionella pneumophila subsp. pneumophila str. Hextuple_3a	Bacteria	Proteobacteria	Gammaproteobacteria	Legionellales	Legionellaceae	Legionella	Legionella pneumophila
1094714	11	Fluoribacter dumoffii Tex-KL	Bacteria	Proteobacteria	Gammaproteobacteria	Legionellales	Legionellaceae	Fluoribacter	Fluoribacter dumoffii
1094715	11	Fluoribacter dumoffii NY 23	Bacteria	Proteobacteria	Gammaproteobacteria	Legionellales	Legionellaceae	Fluoribacter	Fluoribacter dumoffii
1122160	11	Legionella cherrii DSM 19213	Bacteria	Proteobacteria	Gammaproteobacteria	Legionellales	Legionellaceae	Legionella	Legionella cherrii
1122161	11	Legionella geestiana DSM 21217	Bacteria	Proteobacteria	Gammaproteobacteria	Legionellales	Legionellaceae	Legionella	Legionella geestiana
1122162	11	Legionella israelensis DSM 19235	Bacteria	Proteobacteria	Gammaproteobacteria	Legionellales	Legionellaceae	Legionella	Legionella israelensis
1122163	11	Legionella jamestowniensis DSM 19215	Bacteria	Proteobacteria	Gammaproteobacteria	Legionellales	Legionellaceae	Legionella	Legionella jamestowniensis
1122164	11	Legionella lansingensis DSM 19556 = ATCC 49751	Bacteria	Proteobacteria	Gammaproteobacteria	Legionellales	Legionellaceae	Legionella	Legionella lansingensis
1122165	11	Legionella moravica DSM 19234	Bacteria	Proteobacteria	Gammaproteobacteria	Legionellales	Legionellaceae	Legionella	Legionella moravica
1122167	11	Legionella quinlivanii DSM 21216	Bacteria	Proteobacteria	Gammaproteobacteria	Legionellales	Legionellaceae	Legionella	Legionella quinlivanii
1122169	11	Legionella shakespearei DSM 23087	Bacteria	Proteobacteria	Gammaproteobacteria	Legionellales	Legionellaceae	Legionella	Legionella shakespearei
1122170	11	Legionella wadsworthii DSM 21896 = ATCC 33877	Bacteria	Proteobacteria	Gammaproteobacteria	Legionellales	Legionellaceae	Legionella	Legionella wadsworthii
1156986	11	Diplorickettsia massiliensis 20B	Bacteria	Proteobacteria	Gammaproteobacteria	Legionellales	Coxiellaceae	Diplorickettsia	Diplorickettsia massiliensis
1196327	11	Coxiella burnetii cb109	Bacteria	Proteobacteria	Gammaproteobacteria	Legionellales	Coxiellaceae	Coxiella	Coxiella burnetii
1199191	11	Legionella pneumophila subsp. pneumophila str. Thunder Bay	Bacteria	Proteobacteria	Gammaproteobacteria	Legionellales	Legionellaceae	Legionella	Legionella pneumophila
1212489	11	Legionella drozanskii LLAP-1	Bacteria	Proteobacteria	Gammaproteobacteria	Legionellales	Legionellaceae	Legionella	Legionella drozanskii
1212491	11	Legionella fallonii LLAP-10	Bacteria	Proteobacteria	Gammaproteobacteria	Legionellales	Legionellaceae	Legionella	Legionella fallonii
1230343	11	Legionella anisa str. Linanisette	Bacteria	Proteobacteria	Gammaproteobacteria	Legionellales	Legionellaceae	Legionella	Legionella anisa
1236535	11	Legionella pneumophila subsp. pneumophila JCM 7571	Bacteria	Proteobacteria	Gammaproteobacteria	Legionellales	Legionellaceae	Legionella	Legionella pneumophila
1268635	11	Legionella oakridgensis ATCC 33761 = DSM 21215	Bacteria	Proteobacteria	Gammaproteobacteria	Legionellales	Legionellaceae	Legionella	Legionella oakridgensis
1274403	11	Legionella oakridgensis RV-2-2007	Bacteria	Proteobacteria	Gammaproteobacteria	Legionellales	Legionellaceae	Legionella	Legionella oakridgensis
1293501	11	Coxiella burnetii Z3055	Bacteria	Proteobacteria	Gammaproteobacteria	Legionellales	Coxiellaceae	Coxiella	Coxiella burnetii
1312904	11	Legionella pneumophila subsp. pneumophila LPE509	Bacteria	Proteobacteria	Gammaproteobacteria	Legionellales	Legionellaceae	Legionella	Legionella pneumophila
1321945	11	Coxiella burnetii str. Namibia	Bacteria	Proteobacteria	Gammaproteobacteria	Legionellales	Coxiellaceae	Coxiella	Coxiella burnetii
1354676	11	Coxiella burnetii Cb185	Bacteria	Proteobacteria	Gammaproteobacteria	Legionellales	Coxiellaceae	Coxiella	Coxiella burnetii
1370127	11	Legionella pneumophila Leg01/16	Bacteria	Proteobacteria	Gammaproteobacteria	Legionellales	Legionellaceae	Legionella	Legionella pneumophila
1382367	11	Legionella pneumophila W1046	Bacteria	Proteobacteria	Gammaproteobacteria	Legionellales	Legionellaceae	Legionella	Legionella pneumophila
1383063	11	Legionella pneumophila str. 121004	Bacteria	Proteobacteria	Gammaproteobacteria	Legionellales	Legionellaceae	Legionella	Legionella pneumophila
1383064	11	Legionella pneumophila str. Leg01/20	Bacteria	Proteobacteria	Gammaproteobacteria	Legionellales	Legionellaceae	Legionella	Legionella pneumophila
1383065	11	Legionella pneumophila str. Leg01/53	Bacteria	Proteobacteria	Gammaproteobacteria	Legionellales	Legionellaceae	Legionella	Legionella pneumophila
1383066	11	Legionella pneumophila str. Leg01/11	Bacteria	Proteobacteria	Gammaproteobacteria	Legionellales	Legionellaceae	Legionella	Legionella pneumophila
1408444	11	Legionella fairfieldensis ATCC 49588	Bacteria	Proteobacteria	Gammaproteobacteria	Legionellales	Legionellaceae	Legionella	Legionella fairfieldensis
1408445	11	Legionella sainthelensi ATCC 35248	Bacteria	Proteobacteria	Gammaproteobacteria	Legionellales	Legionellaceae	Legionella	Legionella sainthelensi
1498499	11	Legionella norrlandica	Bacteria	Proteobacteria	Gammaproteobacteria	Legionellales	Legionellaceae	Legionella	Legionella norrlandica
1590042	11	Coxiellaceae bacterium CC99	Bacteria	Proteobacteria	Gammaproteobacteria	Legionellales	Coxiellaceae	NA	Coxiellaceae bacterium CC99
1590043	11	Coxiellaceae bacterium HT99	Bacteria	Proteobacteria	Gammaproteobacteria	Legionellales	Coxiellaceae	NA	Coxiellaceae bacterium HT99
1592897	11	Coxiella-like endosymbiont	Bacteria	Proteobacteria	Gammaproteobacteria	Legionellales	Coxiellaceae	NA	Coxiella-like endosymbiont
1703354	11	Coxiella sp. DG_40	Bacteria	Proteobacteria	Gammaproteobacteria	Legionellales	Coxiellaceae	Coxiella	Coxiella sp. DG_40
1750561	11	Legionella sp. LH-SWC	Bacteria	Proteobacteria	Gammaproteobacteria	Legionellales	Legionellaceae	Legionella	Legionella sp. LH-SWC
